{"Message":"Task getting by Id was triggered","Date":"2019-07-10T21:03:58.367859+03:00"}
{"Message":"Loading all projects was triggered","Date":"2019-07-10T21:06:26.0749794+03:00"}
{"Message":"Loading all projects was triggered","Date":"2019-07-10T21:09:09.5168235+03:00"}
{"Message":"Loading all projects was triggered","Date":"2019-07-10T21:15:19.4622697+03:00"}
{"Message":"Loading all projects was triggered","Date":"2019-07-10T21:20:49.3026572+03:00"}
{"Message":"Loading all projects was triggered","Date":"2019-07-10T21:29:32.7384983+03:00"}
{"Message":"Loading all projects was triggered","Date":"2019-07-10T21:31:14.0075695+03:00"}
{"Message":"Loading all users was triggered","Date":"2019-07-10T21:41:23.9807504+03:00"}
{"Message":"Loading all projects was triggered","Date":"2019-07-10T23:23:33.5434319+03:00"}
{"Message":"Loading all projects was triggered","Date":"2019-07-11T16:09:13.2577678+03:00"}
{"Message":"Loading all projects was triggered","Date":"2019-07-11T16:09:43.7323756+03:00"}
{"Message":"Get Count Of Task in project by user Id","Date":"2019-07-11T16:11:35.8274716+03:00"}
{"Message":"Get Count Of Task in project by user Id","Date":"2019-07-11T16:12:58.4680977+03:00"}
{"Message":"Get Count Of Task in project by user Id","Date":"2019-07-11T16:13:46.4842079+03:00"}
